{
    "KPlugin": {
        "Description": "Connect and sync your devices",
        "Description[ar]": "اتّصل وزامن أجهزتك",
        "Description[bg]": "Свържете и синхронизирайте вашите устройства",
        "Description[ca@valencia]": "Connecta i sincronitza els vostres dispositius",
        "Description[ca]": "Connecta i sincronitza els vostres dispositius",
        "Description[es]": "Conecta y sincroniza tus dispositivos",
        "Description[fr]": "Connecter et synchroniser vos périphériques",
        "Description[ka]": "თქვენი მოწყობილობების მიერთება და სინქრონიზაცია",
        "Description[nl]": "Uw apparaten verbinden en synchroniseren",
        "Description[pt]": "Ligue e sincronize os seus dispositivos",
        "Description[sl]": "Poveži in sinhroniziraj svoje naprave",
        "Description[tr]": "Aygıtlarınızı bağlayın ve eşzamanlayın",
        "Description[uk]": "З'єднання і синхронізація ваших пристроїв",
        "Description[x-test]": "xxConnect and sync your devicesxx",
        "FormFactors": [
            "mediacenter"
        ],
        "Icon": "kdeconnect",
        "Name": "KDE Connect",
        "Name[ar]": "كدي المتّصل",
        "Name[az]": "KDE Connect",
        "Name[bg]": "KDE Connect",
        "Name[ca@valencia]": "KDE Connect",
        "Name[ca]": "KDE Connect",
        "Name[cs]": "KDE Connect",
        "Name[da]": "KDE Connect",
        "Name[de]": "KDE Connect",
        "Name[el]": "KDE Connect",
        "Name[en_GB]": "KDE Connect",
        "Name[es]": "KDE Connect",
        "Name[et]": "KDE Connect",
        "Name[eu]": "KDE Connect",
        "Name[fi]": "KDE Connect",
        "Name[fr]": "KDE Connect",
        "Name[hu]": "KDE Connect",
        "Name[id]": "KDE Connect",
        "Name[it]": "KDE Connect",
        "Name[ka]": "KDE Connect",
        "Name[ko]": "KDE Connect",
        "Name[nl]": "KDE Connect",
        "Name[nn]": "KDE Connect",
        "Name[pl]": "KDE Connect",
        "Name[pt]": "KDE Connect",
        "Name[pt_BR]": "KDE Connect",
        "Name[ru]": "KDE Connect",
        "Name[sk]": "KDE Connect",
        "Name[sl]": "KDE Connect",
        "Name[sv]": "KDE-anslut",
        "Name[tr]": "KDE Connect",
        "Name[uk]": "KDE Connect",
        "Name[x-test]": "xxKDE Connectxx",
        "Name[zh_CN]": "KDE Connect",
        "Name[zh_TW]": "KDE 連線"
    },
    "X-DocPath": "kcontrol/kdeconnect/index.html",
    "X-KDE-System-Settings-Parent-Category": "hardware",
    "X-KDE-Weight": 40
}
