{
    "KPlugin": {
        "Description": "Look and Feel",
        "Description[ar]": "الشكل والمظهر",
        "Description[bg]": "Погледни и почувствай",
        "Description[ca@valencia]": "Aspecte i comportament",
        "Description[ca]": "Aspecte i comportament",
        "Description[es]": "Aspecto",
        "Description[fr]": "Apparence et ergonomie",
        "Description[ka]": "გარეგნობა",
        "Description[nl]": "Uiterlijk en gedrag",
        "Description[pt]": "Aparência e Comportamento",
        "Description[sl]": "Videz in občutek",
        "Description[tr]": "Görünüm ve His",
        "Description[uk]": "Вигляд і поведінка",
        "Description[x-test]": "xxLook and Feelxx",
        "FormFactors": [
            "handset",
            "tablet",
            "mediacenter"
        ],
        "Icon": "view-grid-symbolic",
        "Name": "Appearance",
        "Name[ar]": "المظهر",
        "Name[az]": "Xarici görünüş",
        "Name[bg]": "Външен вид",
        "Name[ca@valencia]": "Aparença",
        "Name[ca]": "Aparença",
        "Name[cs]": "Vzhled",
        "Name[de]": "Erscheinungsbild",
        "Name[en_GB]": "Appearance",
        "Name[es]": "Apariencia",
        "Name[eu]": "Itxura",
        "Name[fi]": "Ulkoasu",
        "Name[fr]": "Apparence",
        "Name[hu]": "Megjelenés",
        "Name[id]": "Tampilan",
        "Name[it]": "Aspetto",
        "Name[ka]": "გარემოს იერსახე",
        "Name[ko]": "모양",
        "Name[nl]": "Uiterlijk",
        "Name[nn]": "Utsjånad",
        "Name[pl]": "Wygląd",
        "Name[pt]": "Aparência",
        "Name[pt_BR]": "Aparência",
        "Name[ru]": "Внешний вид",
        "Name[sk]": "Vzhľad",
        "Name[sl]": "Videz",
        "Name[sv]": "Utseende",
        "Name[tr]": "Görünüş",
        "Name[uk]": "Вигляд",
        "Name[x-test]": "xxAppearancexx",
        "Name[zh_CN]": "外观"
    },
    "X-KDE-Keywords": "theme, look, feel",
    "X-KDE-Keywords[ar]": "سمة,منظر,الشكل",
    "X-KDE-Keywords[az]": "theme, look, feel,mövzu,xarici görünüş,hissetmə,vidjetlər növü",
    "X-KDE-Keywords[bg]": "тема,външен вид",
    "X-KDE-Keywords[ca@valencia]": "tema, aspecte, comportament",
    "X-KDE-Keywords[ca]": "tema, aspecte, comportament",
    "X-KDE-Keywords[cs]": "motiv,vzhled,chování",
    "X-KDE-Keywords[de]": "Design,Erscheinungsbild",
    "X-KDE-Keywords[en_GB]": "theme, look, feel",
    "X-KDE-Keywords[es]": "tema, aspecto",
    "X-KDE-Keywords[eu]": "gaia, itxura, izaera",
    "X-KDE-Keywords[fi]": "teema, ulkoasu, tuntuma",
    "X-KDE-Keywords[fr]": "Thème, apparence, ergonomie",
    "X-KDE-Keywords[hu]": "téma, kinézet, megjelenés",
    "X-KDE-Keywords[id]": "tema, tampilan, nuansa",
    "X-KDE-Keywords[it]": "tema, aspetto",
    "X-KDE-Keywords[ka]": "თემა გარეგნობა, გრძნობა",
    "X-KDE-Keywords[ko]": "theme, look, feel, 테마, 모습과 느낌",
    "X-KDE-Keywords[nl]": "thema, uiterlijk, gedrag",
    "X-KDE-Keywords[nn]": "tema, utsjånad, åtferd",
    "X-KDE-Keywords[pl]": "wystrój, wygląd, odczucia, wrażenia",
    "X-KDE-Keywords[pt]": "tema, aparência, comportamento",
    "X-KDE-Keywords[pt_BR]": "tema, visual, aparência",
    "X-KDE-Keywords[ru]": "theme,look,feel,тема,оформление,внешний вид,стиль",
    "X-KDE-Keywords[sk]": "téma, vzhľad, dojem",
    "X-KDE-Keywords[sl]": "tema, videz,občutek",
    "X-KDE-Keywords[sv]": "tema, utseende, känsla",
    "X-KDE-Keywords[tr]": "tema, görünüm, his",
    "X-KDE-Keywords[uk]": "theme,look,feel,тема,вигляд,поведінка",
    "X-KDE-Keywords[x-test]": "xxthemexx,xx lookxx,xx feelxx",
    "X-KDE-Keywords[zh_CN]": "theme, look, feel, 主题, 外观, 视觉效果, 显示效果",
    "X-KDE-System-Settings-Parent-Category": "regionalsettings",
    "X-KDE-Weight": 70
}
